…
## Estatísticas mensais

``` r
resumo_mensal <- dados_climatico  |>
  group_by(ano, mes)  |>
  summarise(
    temp_min = mean(temp_min, na.rm = TRUE),
    temp_med = mean(temp_media, na.rm = TRUE),
    temp_max = mean(temp_max, na.rm = TRUE),
    prec_total = sum(precipitacao, na.rm = TRUE),
    .groups = "drop"
  )
resumo_mensal
#> # A tibble: 65 × 6
#>      ano   mes temp_min temp_med temp_max prec_total
#>    <dbl> <dbl>    <dbl>    <dbl>    <dbl>      <dbl>
#>  1  2020     1     22.2     25.6     31.2      376. 
#>  2  2020     2     22.5     25.7     31.1      360. 
#>  3  2020     3     22.5     26.0     31.3      171. 
#>  4  2020     4     21.6     25.7     30.9      103. 
#>  5  2020     5     17.9     23.5     29.9       71.4
#>  6  2020     6     17.4     24.6     32.6        0  
#>  7  2020     7     15.6     24.4     33.4        0  
#>  8  2020     8     16.1     25.5     34.7        0  
#>  9  2020     9     19.4     28.1     37.0        0  
#> 10  2020    10     21.8     27.3     34.8       86.8
#> # ℹ 55 more rows
```
…
